…
There are `nrow(distinct(brfss_smart2010_tidy, county, .keep_all = TRUE))` unique locations in the dataset.

``` r
distinct(brfss_smart2010_tidy, state, .keep_all = TRUE) %>% 
  nrow()
```

    ## [1] 51

``` r
count_(brfss_smart2010_tidy, "state", sort = TRUE)
```

    ## # A tibble: 51 x 2
    ##    state     n
    ##    <chr> <int>
    ##  1 NJ      146
    ##  2 FL      122
    ##  3 NC      115
    ##  4 WA       97
    ##  5 MD       90
    ##  6 MA       79
    ##  7 TX       71
    ##  8 NY       65
    ##  9 SC       63
    ## 10 CO       59
    ## # ... with 41 more rows
…
